h1 
	- font - family: Arial, sans
	- font-size: 51.3px
	- line height: 51.3px
	- color:#26481b;



h2

	- font - family: Arial, sans
	- font-size: 30px
	- line height: 17.38 px
	- color:#26481b;

h3{
	font-size: 35px;
	line-height:21.54px;
	}


h4


p
	- font - family: Arial, sans
	- font-size: 13px
	- line height: 15px
	- color:#26481b;



a

brand colors 

	red 
	yello 
	green 
		- color:26481b;
	gray 




main cont width = 1300px


inner cont width 

button-class 

feature box corner radius and background color gradiant 




